Emory COVID-19 Response Collaborative
…
```
## Simple feature collection with 48 features and 4 fields
## Geometry type: MULTIPOLYGON
## Dimension:     XY
## Bounding box:  xmin: 2087952 ymin: 1274336 xmax: 2317492 ymax: 1522856
*## Projected CRS: NAD83 / Georgia West (ftUS)
## # A tibble: 48 x 5
##    ZipCode SHAPE_Leng  SHAPE_Area Population                            geometry
##    <chr>        <dbl>       <dbl>      <dbl>     <MULTIPOLYGON [US_survey_foot]>
##  1 30304        3578.     874668.          0 (((2228175 1327979, 2227998 132786~
##  2 30098        6187.    2071539.        118 (((2297621 1477003, 2296953 147697~
##  3 30291      123056.  271391984.      20835 (((2193467 1298536, 2192364 129806~
##  4 30268      294091. 1729387442.       7729 (((2121821 1318505, 2122024 131756~
##  5 30305       87773.  187624264.      29220 (((2233900 1400489, 2233914 139992~
##  6 30213      375869. 1801881966.      39840 (((2151675 1332989, 2151274 133220~
##  7 30092       17665.    2769444.          0 (((2278083 1456502, 2278075 145649~
##  8 30024       33262.   30183784.        299 (((2300742 1476746, 2300594 147679~
##  9 30097      124207.  336153806.      26791 (((2295375 1480030, 2295462 148000~
## 10 30022      169357.  673419811.      69893 (((2286054 1475364, 2286025 147513~
## # ... with 38 more rows
```
…
---
# Changing the CRS 

```r
# change shapefile coordinate reference system to WGS84
shapefile <- st_transform(shapefile, crs = 4326)
```

```
## Simple feature collection with 48 features and 4 fields
## Geometry type: MULTIPOLYGON
## Dimension:     XY
## Bounding box:  xmin: -84.85116 ymin: 33.5025 xmax: -84.09764 ymax: 34.1862
*## Geodetic CRS:  WGS 84
## # A tibble: 48 x 5
##    ZipCode SHAPE_Leng  SHAPE_Area Population                            geometry
##  * <chr>        <dbl>       <dbl>      <dbl>                  <MULTIPOLYGON [°]>
##  1 30304        3578.     874668.          0 (((-84.39147 33.65054, -84.39205 3~
##  2 30098        6187.    2071539.        118 (((-84.16324 34.0603, -84.16545 34~
##  3 30291      123056.  271391984.      20835 (((-84.50521 33.56937, -84.50882 3~
##  4 30268      294091. 1729387442.       7729 (((-84.74079 33.62338, -84.7401 33~
##  5 30305       87773.  187624264.      29220 (((-84.37313 33.84985, -84.37308 3~
##  6 30213      375869. 1801881966.      39840 (((-84.64293 33.6636, -84.64424 33~
##  7 30092       17665.    2769444.          0 (((-84.22771 34.00394, -84.22774 3~
##  8 30024       33262.   30183784.        299 (((-84.15294 34.05959, -84.15342 3~
##  9 30097      124207.  336153806.      26791 (((-84.17066 34.06862, -84.17037 3~
## 10 30022      169357.  673419811.      69893 (((-84.20143 34.05579, -84.20153 3~
## # ... with 38 more rows
```
…
